{
	"info": {
		"_postman_id": "e6a206bd-a326-43dd-9962-10822d27eae8",
		"name": "Almundo",
		"schema": "https://schema.getpostman.com/json/collection/v2.1.0/collection.json"
	},
	"item": [
		{
			"name": "Calls",
			"item": [
				{
					"name": "receiveCall",
					"request": {
						"method": "POST",
						"header": [],
						"body": {
							"mode": "raw",
							"raw": ""
						},
						"url": {
							"raw": "localhost:8089/calls/",
							"host": [
								"localhost"
							],
							"port": "8089",
							"path": [
								"calls",
								""
							]
						}
					},
					"response": []
				},
				{
					"name": "getAllCalls",
					"request": {
						"method": "GET",
						"header": [],
						"body": {
							"mode": "raw",
							"raw": ""
						},
						"url": {
							"raw": ""
						}
					},
					"response": []
				},
				{
					"name": "getByIdCaller",
					"request": {
						"method": "GET",
						"header": [],
						"body": {
							"mode": "raw",
							"raw": ""
						},
						"url": {
							"raw": ""
						}
					},
					"response": []
				}
			]
		},
		{
			"name": "Employee",
			"item": [
				{
					"name": "get",
					"request": {
						"method": "GET",
						"header": [],
						"body": {
							"mode": "raw",
							"raw": ""
						},
						"url": {
							"raw": ""
						}
					},
					"response": []
				},
				{
					"name": "getBusyEmployees",
					"request": {
						"method": "GET",
						"header": [],
						"body": {
							"mode": "raw",
							"raw": ""
						},
						"url": {
							"raw": ""
						}
					},
					"response": []
				},
				{
					"name": "subscribeEmployees",
					"request": {
						"method": "POST",
						"header": [],
						"body": {
							"mode": "raw",
							"raw": ""
						},
						"url": {
							"raw": "{{url}}/employees/subscribe-all",
							"host": [
								"{{url}}"
							],
							"path": [
								"employees",
								"subscribe-all"
							]
						}
					},
					"response": []
				},
				{
					"name": "subscribeEmployees Copy",
					"request": {
						"method": "POST",
						"header": [],
						"body": {
							"mode": "raw",
							"raw": ""
						},
						"url": {
							"raw": "{{url}}/employees/unsubscribe-all",
							"host": [
								"{{url}}"
							],
							"path": [
								"employees",
								"unsubscribe-all"
							]
						}
					},
					"response": []
				}
			]
		}
	]
}